EESchema Schematic File Version 4
EELAYER 30 0
EELAYER END
$Descr A4 11693 8268
encoding utf-8
Sheet 2 2
Title ""
Date ""
Rev ""
Comp ""
Comment1 ""
Comment2 ""
Comment3 ""
Comment4 ""
$EndDescr
$Comp
L Device:LED D4
U 1 1 6017FD20
P 5450 2000
F 0 "D4" H 5443 1745 50  0000 C CNN
F 1 "WWLED" H 5443 1836 50  0000 C CNN
F 2 "lightboard:EAH2835" H 5450 2000 50  0001 C CNN
F 3 "~" H 5450 2000 50  0001 C CNN
	1    5450 2000
	-1   0    0    1   
$EndComp
$Comp
L lightboard-rescue:TPS61165DBVR-dk_PMIC-LED-Drivers U1
U 1 1 6017FD2F
P 4000 2600
AR Path="/6017FD2F" Ref="U1"  Part="1" 
AR Path="/60156CA4/6017FD2F" Ref="U1"  Part="1" 
F 0 "U1" H 4344 2653 60  0000 L CNN
F 1 "TPS61165DBVR" H 4344 2547 60  0000 L CNN
F 2 "digikey-footprints:SOT-23-6" H 4200 2800 60  0001 L CNN
F 3 "http://www.ti.com/general/docs/suppproductinfo.tsp?distId=10&gotoUrl=http%3A%2F%2Fwww.ti.com%2Flit%2Fgpn%2Ftps61165" H 4200 2900 60  0001 L CNN
F 4 "296-27597-1-ND" H 4200 3000 60  0001 L CNN "Digi-Key_PN"
F 5 "TPS61165DBVR" H 4200 3100 60  0001 L CNN "MPN"
F 6 "Integrated Circuits (ICs)" H 4200 3200 60  0001 L CNN "Category"
F 7 "PMIC - LED Drivers" H 4200 3300 60  0001 L CNN "Family"
F 8 "http://www.ti.com/general/docs/suppproductinfo.tsp?distId=10&gotoUrl=http%3A%2F%2Fwww.ti.com%2Flit%2Fgpn%2Ftps61165" H 4200 3400 60  0001 L CNN "DK_Datasheet_Link"
F 9 "/product-detail/en/texas-instruments/TPS61165DBVR/296-27597-1-ND/2340765" H 4200 3500 60  0001 L CNN "DK_Detail_Page"
F 10 "IC LED DRIVER RGLTR DIM SOT23-6" H 4200 3600 60  0001 L CNN "Description"
F 11 "Texas Instruments" H 4200 3700 60  0001 L CNN "Manufacturer"
F 12 "Active" H 4200 3800 60  0001 L CNN "Status"
	1    4000 2600
	1    0    0    -1  
$EndComp
$Comp
L Device:L L1
U 1 1 6017FD35
P 4050 2000
F 0 "L1" V 4240 2000 50  0000 C CNN
F 1 "10uH" V 4149 2000 50  0000 C CNN
F 2 "lightboard:A915AY" H 4050 2000 50  0001 C CNN
F 3 "~" H 4050 2000 50  0001 C CNN
	1    4050 2000
	0    -1   -1   0   
$EndComp
$Comp
L Device:C C1
U 1 1 6017FD3B
P 3300 2150
F 0 "C1" H 3415 2196 50  0000 L CNN
F 1 "4.7uF" H 3415 2105 50  0000 L CNN
F 2 "Capacitor_SMD:C_0805_2012Metric" H 3338 2000 50  0001 C CNN
F 3 "~" H 3300 2150 50  0001 C CNN
	1    3300 2150
	1    0    0    -1  
$EndComp
$Comp
L Device:R R9
U 1 1 6017FD41
P 8700 3000
F 0 "R9" H 8770 3046 50  0000 L CNN
F 1 "0.68" H 8770 2955 50  0000 L CNN
F 2 "Resistor_SMD:R_0805_2012Metric" V 8630 3000 50  0001 C CNN
F 3 "~" H 8700 3000 50  0001 C CNN
	1    8700 3000
	1    0    0    -1  
$EndComp
$Comp
L Device:C C5
U 1 1 6017FD47
P 4800 2250
F 0 "C5" H 4915 2296 50  0000 L CNN
F 1 "1uF" H 4915 2205 50  0000 L CNN
F 2 "Capacitor_SMD:C_1206_3216Metric" H 4838 2100 50  0001 C CNN
F 3 "~" H 4800 2250 50  0001 C CNN
	1    4800 2250
	1    0    0    -1  
$EndComp
$Comp
L Device:C C3
U 1 1 6017FD4D
P 3500 2950
F 0 "C3" H 3615 2996 50  0000 L CNN
F 1 "220nF" H 3615 2905 50  0000 L CNN
F 2 "Capacitor_SMD:C_0603_1608Metric" H 3538 2800 50  0001 C CNN
F 3 "~" H 3500 2950 50  0001 C CNN
	1    3500 2950
	1    0    0    -1  
$EndComp
$Comp
L power:GND #PWR024
U 1 1 6017FD53
P 3500 3200
F 0 "#PWR024" H 3500 2950 50  0001 C CNN
F 1 "GND" H 3505 3027 50  0000 C CNN
F 2 "" H 3500 3200 50  0001 C CNN
F 3 "" H 3500 3200 50  0001 C CNN
	1    3500 3200
	1    0    0    -1  
$EndComp
Wire Wire Line
	3500 3100 3500 3200
Wire Wire Line
	3500 2800 3500 2700
Wire Wire Line
	3500 2700 3600 2700
$Comp
L power:GND #PWR026
U 1 1 6017FD5C
P 4000 3200
F 0 "#PWR026" H 4000 2950 50  0001 C CNN
F 1 "GND" H 4005 3027 50  0000 C CNN
F 2 "" H 4000 3200 50  0001 C CNN
F 3 "" H 4000 3200 50  0001 C CNN
	1    4000 3200
	1    0    0    -1  
$EndComp
Wire Wire Line
	4000 3200 4000 2900
Wire Wire Line
	3300 2000 3800 2000
Wire Wire Line
	3050 1950 3050 2000
Wire Wire Line
	3050 2000 3300 2000
Connection ~ 3300 2000
$Comp
L power:GND #PWR012
U 1 1 6017FD67
P 3300 2300
F 0 "#PWR012" H 3300 2050 50  0001 C CNN
F 1 "GND" H 3305 2127 50  0000 C CNN
F 2 "" H 3300 2300 50  0001 C CNN
F 3 "" H 3300 2300 50  0001 C CNN
	1    3300 2300
	1    0    0    -1  
$EndComp
Wire Wire Line
	4300 2000 4300 2500
$Comp
L Device:D_Schottky D2
U 1 1 6017FD6E
P 4550 2000
F 0 "D2" H 4550 1783 50  0000 C CNN
F 1 "D_Schottky" H 4550 1874 50  0000 C CNN
F 2 "Diode_SMD:D_SOD-123" H 4550 2000 50  0001 C CNN
F 3 "~" H 4550 2000 50  0001 C CNN
	1    4550 2000
	-1   0    0    1   
$EndComp
Wire Wire Line
	4400 2000 4300 2000
Connection ~ 4300 2000
Wire Wire Line
	4200 2000 4300 2000
Wire Wire Line
	4000 2300 4000 2250
Wire Wire Line
	4000 2250 3800 2250
Wire Wire Line
	3800 2250 3800 2000
Connection ~ 3800 2000
Wire Wire Line
	3800 2000 3900 2000
Wire Wire Line
	4700 2000 4800 2000
Wire Wire Line
	4800 2000 4800 2100
$Comp
L power:GND #PWR028
U 1 1 6017FD7E
P 4800 2400
F 0 "#PWR028" H 4800 2150 50  0001 C CNN
F 1 "GND" H 4805 2227 50  0000 C CNN
F 2 "" H 4800 2400 50  0001 C CNN
F 3 "" H 4800 2400 50  0001 C CNN
	1    4800 2400
	1    0    0    -1  
$EndComp
Wire Wire Line
	4800 2000 5150 2000
Connection ~ 4800 2000
Wire Wire Line
	5150 2000 5150 2400
Wire Wire Line
	5150 2400 5300 2400
Connection ~ 5150 2000
Wire Wire Line
	5150 2000 5300 2000
Wire Wire Line
	5600 2000 5700 2000
Wire Wire Line
	5600 2400 5700 2400
Wire Wire Line
	6100 2000 6000 2000
Wire Wire Line
	6000 2400 6100 2400
Wire Wire Line
	6400 2400 6500 2400
Wire Wire Line
	6400 2000 6500 2000
Wire Wire Line
	6800 2000 6900 2000
Wire Wire Line
	6800 2400 6900 2400
Wire Wire Line
	7200 2400 7300 2400
Wire Wire Line
	7200 2000 7300 2000
Wire Wire Line
	7700 2000 7600 2000
Wire Wire Line
	7700 2400 7600 2400
Wire Wire Line
	8000 2000 8100 2000
Wire Wire Line
	8000 2400 8100 2400
Wire Wire Line
	8400 2000 8700 2000
Wire Wire Line
	8700 2000 8700 2400
Wire Wire Line
	8700 2400 8400 2400
Connection ~ 8700 2400
Wire Wire Line
	8700 2400 8700 2700
$Comp
L power:GND #PWR030
U 1 1 6017FD9D
P 8700 3150
F 0 "#PWR030" H 8700 2900 50  0001 C CNN
F 1 "GND" H 8705 2977 50  0000 C CNN
F 2 "" H 8700 3150 50  0001 C CNN
F 3 "" H 8700 3150 50  0001 C CNN
	1    8700 3150
	1    0    0    -1  
$EndComp
Text Label 8400 2700 0    50   ~ 0
FBWW
Wire Wire Line
	8400 2700 8700 2700
Connection ~ 8700 2700
Wire Wire Line
	8700 2700 8700 2850
$Comp
L Device:LED D5
U 1 1 6017FDAB
P 5450 2400
F 0 "D5" H 5443 2145 50  0000 C CNN
F 1 "WWLED" H 5443 2236 50  0000 C CNN
F 2 "lightboard:EAH2835" H 5450 2400 50  0001 C CNN
F 3 "~" H 5450 2400 50  0001 C CNN
	1    5450 2400
	-1   0    0    1   
$EndComp
$Comp
L Device:LED D8
U 1 1 6017FDB1
P 5850 2000
F 0 "D8" H 5843 1745 50  0000 C CNN
F 1 "WWLED" H 5843 1836 50  0000 C CNN
F 2 "lightboard:EAH2835" H 5850 2000 50  0001 C CNN
F 3 "~" H 5850 2000 50  0001 C CNN
	1    5850 2000
	-1   0    0    1   
$EndComp
$Comp
L Device:LED D9
U 1 1 6017FDB7
P 5850 2400
F 0 "D9" H 5843 2145 50  0000 C CNN
F 1 "WWLED" H 5843 2236 50  0000 C CNN
F 2 "lightboard:EAH2835" H 5850 2400 50  0001 C CNN
F 3 "~" H 5850 2400 50  0001 C CNN
	1    5850 2400
	-1   0    0    1   
$EndComp
$Comp
L Device:LED D12
U 1 1 6017FDBD
P 6250 2000
F 0 "D12" H 6243 1745 50  0000 C CNN
F 1 "WWLED" H 6243 1836 50  0000 C CNN
F 2 "lightboard:EAH2835" H 6250 2000 50  0001 C CNN
F 3 "~" H 6250 2000 50  0001 C CNN
	1    6250 2000
	-1   0    0    1   
$EndComp
$Comp
L Device:LED D13
U 1 1 6017FDC3
P 6250 2400
F 0 "D13" H 6243 2145 50  0000 C CNN
F 1 "WWLED" H 6243 2236 50  0000 C CNN
F 2 "lightboard:EAH2835" H 6250 2400 50  0001 C CNN
F 3 "~" H 6250 2400 50  0001 C CNN
	1    6250 2400
	-1   0    0    1   
$EndComp
$Comp
L Device:LED D16
U 1 1 6017FDC9
P 6650 2000
F 0 "D16" H 6643 1745 50  0000 C CNN
F 1 "WWLED" H 6643 1836 50  0000 C CNN
F 2 "lightboard:EAH2835" H 6650 2000 50  0001 C CNN
F 3 "~" H 6650 2000 50  0001 C CNN
	1    6650 2000
	-1   0    0    1   
$EndComp
$Comp
L Device:LED D17
U 1 1 6017FDCF
P 6650 2400
F 0 "D17" H 6643 2145 50  0000 C CNN
F 1 "WWLED" H 6643 2236 50  0000 C CNN
F 2 "lightboard:EAH2835" H 6650 2400 50  0001 C CNN
F 3 "~" H 6650 2400 50  0001 C CNN
	1    6650 2400
	-1   0    0    1   
$EndComp
$Comp
L Device:LED D20
U 1 1 6017FDD5
P 7050 2000
F 0 "D20" H 7043 1745 50  0000 C CNN
F 1 "WWLED" H 7043 1836 50  0000 C CNN
F 2 "lightboard:EAH2835" H 7050 2000 50  0001 C CNN
F 3 "~" H 7050 2000 50  0001 C CNN
	1    7050 2000
	-1   0    0    1   
$EndComp
$Comp
L Device:LED D21
U 1 1 6017FDDB
P 7050 2400
F 0 "D21" H 7043 2145 50  0000 C CNN
F 1 "WWLED" H 7043 2236 50  0000 C CNN
F 2 "lightboard:EAH2835" H 7050 2400 50  0001 C CNN
F 3 "~" H 7050 2400 50  0001 C CNN
	1    7050 2400
	-1   0    0    1   
$EndComp
$Comp
L Device:LED D24
U 1 1 6017FDE1
P 7450 2000
F 0 "D24" H 7443 1745 50  0000 C CNN
F 1 "WWLED" H 7443 1836 50  0000 C CNN
F 2 "lightboard:EAH2835" H 7450 2000 50  0001 C CNN
F 3 "~" H 7450 2000 50  0001 C CNN
	1    7450 2000
	-1   0    0    1   
$EndComp
$Comp
L Device:LED D25
U 1 1 6017FDE7
P 7450 2400
F 0 "D25" H 7443 2145 50  0000 C CNN
F 1 "WWLED" H 7443 2236 50  0000 C CNN
F 2 "lightboard:EAH2835" H 7450 2400 50  0001 C CNN
F 3 "~" H 7450 2400 50  0001 C CNN
	1    7450 2400
	-1   0    0    1   
$EndComp
$Comp
L Device:LED D28
U 1 1 6017FDED
P 7850 2000
F 0 "D28" H 7843 1745 50  0000 C CNN
F 1 "WWLED" H 7843 1836 50  0000 C CNN
F 2 "lightboard:EAH2835" H 7850 2000 50  0001 C CNN
F 3 "~" H 7850 2000 50  0001 C CNN
	1    7850 2000
	-1   0    0    1   
$EndComp
$Comp
L Device:LED D29
U 1 1 6017FDF3
P 7850 2400
F 0 "D29" H 7843 2145 50  0000 C CNN
F 1 "WWLED" H 7843 2236 50  0000 C CNN
F 2 "lightboard:EAH2835" H 7850 2400 50  0001 C CNN
F 3 "~" H 7850 2400 50  0001 C CNN
	1    7850 2400
	-1   0    0    1   
$EndComp
$Comp
L Device:LED D32
U 1 1 6017FDF9
P 8250 2000
F 0 "D32" H 8243 1745 50  0000 C CNN
F 1 "WWLED" H 8243 1836 50  0000 C CNN
F 2 "lightboard:EAH2835" H 8250 2000 50  0001 C CNN
F 3 "~" H 8250 2000 50  0001 C CNN
	1    8250 2000
	-1   0    0    1   
$EndComp
$Comp
L Device:LED D33
U 1 1 6017FDFF
P 8250 2400
F 0 "D33" H 8243 2145 50  0000 C CNN
F 1 "WWLED" H 8243 2236 50  0000 C CNN
F 2 "lightboard:EAH2835" H 8250 2400 50  0001 C CNN
F 3 "~" H 8250 2400 50  0001 C CNN
	1    8250 2400
	-1   0    0    1   
$EndComp
$Comp
L Device:LED D6
U 1 1 6017FE05
P 5450 4300
F 0 "D6" H 5443 4045 50  0000 C CNN
F 1 "CWLED" H 5443 4136 50  0000 C CNN
F 2 "lightboard:EAH2835" H 5450 4300 50  0001 C CNN
F 3 "~" H 5450 4300 50  0001 C CNN
	1    5450 4300
	-1   0    0    1   
$EndComp
$Comp
L lightboard-rescue:TPS61165DBVR-dk_PMIC-LED-Drivers U3
U 1 1 6017FE14
P 4000 4900
AR Path="/6017FE14" Ref="U3"  Part="1" 
AR Path="/60156CA4/6017FE14" Ref="U3"  Part="1" 
F 0 "U3" H 4344 4953 60  0000 L CNN
F 1 "TPS61165DBVR" H 4344 4847 60  0000 L CNN
F 2 "digikey-footprints:SOT-23-6" H 4200 5100 60  0001 L CNN
F 3 "http://www.ti.com/general/docs/suppproductinfo.tsp?distId=10&gotoUrl=http%3A%2F%2Fwww.ti.com%2Flit%2Fgpn%2Ftps61165" H 4200 5200 60  0001 L CNN
F 4 "296-27597-1-ND" H 4200 5300 60  0001 L CNN "Digi-Key_PN"
F 5 "TPS61165DBVR" H 4200 5400 60  0001 L CNN "MPN"
F 6 "Integrated Circuits (ICs)" H 4200 5500 60  0001 L CNN "Category"
F 7 "PMIC - LED Drivers" H 4200 5600 60  0001 L CNN "Family"
F 8 "http://www.ti.com/general/docs/suppproductinfo.tsp?distId=10&gotoUrl=http%3A%2F%2Fwww.ti.com%2Flit%2Fgpn%2Ftps61165" H 4200 5700 60  0001 L CNN "DK_Datasheet_Link"
F 9 "/product-detail/en/texas-instruments/TPS61165DBVR/296-27597-1-ND/2340765" H 4200 5800 60  0001 L CNN "DK_Detail_Page"
F 10 "IC LED DRIVER RGLTR DIM SOT23-6" H 4200 5900 60  0001 L CNN "Description"
F 11 "Texas Instruments" H 4200 6000 60  0001 L CNN "Manufacturer"
F 12 "Active" H 4200 6100 60  0001 L CNN "Status"
	1    4000 4900
	1    0    0    -1  
$EndComp
$Comp
L Device:L L2
U 1 1 6017FE1A
P 4050 4300
F 0 "L2" V 4240 4300 50  0000 C CNN
F 1 "10uH" V 4149 4300 50  0000 C CNN
F 2 "lightboard:A915AY" H 4050 4300 50  0001 C CNN
F 3 "~" H 4050 4300 50  0001 C CNN
	1    4050 4300
	0    -1   -1   0   
$EndComp
$Comp
L Device:C C2
U 1 1 6017FE20
P 3300 4450
F 0 "C2" H 3415 4496 50  0000 L CNN
F 1 "4.7uF" H 3415 4405 50  0000 L CNN
F 2 "Capacitor_SMD:C_0805_2012Metric" H 3338 4300 50  0001 C CNN
F 3 "~" H 3300 4450 50  0001 C CNN
	1    3300 4450
	1    0    0    -1  
$EndComp
$Comp
L Device:R R10
U 1 1 6017FE26
P 8700 5300
F 0 "R10" H 8770 5346 50  0000 L CNN
F 1 "0.68" H 8770 5255 50  0000 L CNN
F 2 "Resistor_SMD:R_0805_2012Metric" V 8630 5300 50  0001 C CNN
F 3 "~" H 8700 5300 50  0001 C CNN
	1    8700 5300
	1    0    0    -1  
$EndComp
$Comp
L Device:C C6
U 1 1 6017FE2C
P 4800 4550
F 0 "C6" H 4915 4596 50  0000 L CNN
F 1 "1uF" H 4915 4505 50  0000 L CNN
F 2 "Capacitor_SMD:C_1206_3216Metric" H 4838 4400 50  0001 C CNN
F 3 "~" H 4800 4550 50  0001 C CNN
	1    4800 4550
	1    0    0    -1  
$EndComp
$Comp
L Device:C C4
U 1 1 6017FE32
P 3500 5250
F 0 "C4" H 3615 5296 50  0000 L CNN
F 1 "220nF" H 3615 5205 50  0000 L CNN
F 2 "Capacitor_SMD:C_0603_1608Metric" H 3538 5100 50  0001 C CNN
F 3 "~" H 3500 5250 50  0001 C CNN
	1    3500 5250
	1    0    0    -1  
$EndComp
$Comp
L power:VCC #PWR06
U 1 1 6017FE38
P 3050 4250
F 0 "#PWR06" H 3050 4100 50  0001 C CNN
F 1 "VCC" H 3065 4423 50  0000 C CNN
F 2 "" H 3050 4250 50  0001 C CNN
F 3 "" H 3050 4250 50  0001 C CNN
	1    3050 4250
	1    0    0    -1  
$EndComp
$Comp
L power:GND #PWR025
U 1 1 6017FE3E
P 3500 5500
F 0 "#PWR025" H 3500 5250 50  0001 C CNN
F 1 "GND" H 3505 5327 50  0000 C CNN
F 2 "" H 3500 5500 50  0001 C CNN
F 3 "" H 3500 5500 50  0001 C CNN
	1    3500 5500
	1    0    0    -1  
$EndComp
Wire Wire Line
	3500 5400 3500 5500
Wire Wire Line
	3500 5100 3500 5000
Wire Wire Line
	3500 5000 3600 5000
$Comp
L power:GND #PWR027
U 1 1 6017FE47
P 4000 5500
F 0 "#PWR027" H 4000 5250 50  0001 C CNN
F 1 "GND" H 4005 5327 50  0000 C CNN
F 2 "" H 4000 5500 50  0001 C CNN
F 3 "" H 4000 5500 50  0001 C CNN
	1    4000 5500
	1    0    0    -1  
$EndComp
Wire Wire Line
	4000 5500 4000 5200
Wire Wire Line
	3300 4300 3800 4300
Wire Wire Line
	3050 4250 3050 4300
Wire Wire Line
	3050 4300 3300 4300
Connection ~ 3300 4300
$Comp
L power:GND #PWR017
U 1 1 6017FE52
P 3300 4600
F 0 "#PWR017" H 3300 4350 50  0001 C CNN
F 1 "GND" H 3305 4427 50  0000 C CNN
F 2 "" H 3300 4600 50  0001 C CNN
F 3 "" H 3300 4600 50  0001 C CNN
	1    3300 4600
	1    0    0    -1  
$EndComp
Wire Wire Line
	4300 4300 4300 4800
$Comp
L Device:D_Schottky D3
U 1 1 6017FE59
P 4550 4300
F 0 "D3" H 4550 4083 50  0000 C CNN
F 1 "D_Schottky" H 4550 4174 50  0000 C CNN
F 2 "Diode_SMD:D_SOD-123" H 4550 4300 50  0001 C CNN
F 3 "~" H 4550 4300 50  0001 C CNN
	1    4550 4300
	-1   0    0    1   
$EndComp
Wire Wire Line
	4400 4300 4300 4300
Connection ~ 4300 4300
Wire Wire Line
	4200 4300 4300 4300
Wire Wire Line
	4000 4600 4000 4550
Wire Wire Line
	4000 4550 3800 4550
Wire Wire Line
	3800 4550 3800 4300
Connection ~ 3800 4300
Wire Wire Line
	3800 4300 3900 4300
Wire Wire Line
	4700 4300 4800 4300
Wire Wire Line
	4800 4300 4800 4400
$Comp
L power:GND #PWR029
U 1 1 6017FE69
P 4800 4700
F 0 "#PWR029" H 4800 4450 50  0001 C CNN
F 1 "GND" H 4805 4527 50  0000 C CNN
F 2 "" H 4800 4700 50  0001 C CNN
F 3 "" H 4800 4700 50  0001 C CNN
	1    4800 4700
	1    0    0    -1  
$EndComp
Wire Wire Line
	4800 4300 5150 4300
Connection ~ 4800 4300
Wire Wire Line
	5150 4300 5150 4700
Wire Wire Line
	5150 4700 5300 4700
Connection ~ 5150 4300
Wire Wire Line
	5150 4300 5300 4300
Wire Wire Line
	5600 4300 5700 4300
Wire Wire Line
	5600 4700 5700 4700
Wire Wire Line
	8400 4300 8700 4300
Wire Wire Line
	8700 4300 8700 4700
Wire Wire Line
	8700 4700 8400 4700
Connection ~ 8700 4700
Wire Wire Line
	8700 4700 8700 5000
$Comp
L power:GND #PWR031
U 1 1 6017FE7C
P 8700 5450
F 0 "#PWR031" H 8700 5200 50  0001 C CNN
F 1 "GND" H 8705 5277 50  0000 C CNN
F 2 "" H 8700 5450 50  0001 C CNN
F 3 "" H 8700 5450 50  0001 C CNN
	1    8700 5450
	1    0    0    -1  
$EndComp
Text Label 8400 5000 0    50   ~ 0
FBCW
Wire Wire Line
	8400 5000 8700 5000
Connection ~ 8700 5000
Wire Wire Line
	8700 5000 8700 5150
$Comp
L Device:LED D7
U 1 1 6017FE8A
P 5450 4700
F 0 "D7" H 5443 4445 50  0000 C CNN
F 1 "CWLED" H 5443 4536 50  0000 C CNN
F 2 "lightboard:EAH2835" H 5450 4700 50  0001 C CNN
F 3 "~" H 5450 4700 50  0001 C CNN
	1    5450 4700
	-1   0    0    1   
$EndComp
$Comp
L Device:LED D10
U 1 1 6017FE90
P 5850 4300
F 0 "D10" H 5843 4045 50  0000 C CNN
F 1 "CWLED" H 5843 4136 50  0000 C CNN
F 2 "lightboard:EAH2835" H 5850 4300 50  0001 C CNN
F 3 "~" H 5850 4300 50  0001 C CNN
	1    5850 4300
	-1   0    0    1   
$EndComp
Wire Wire Line
	6000 4300 6100 4300
Wire Wire Line
	6000 4700 6100 4700
$Comp
L Device:LED D11
U 1 1 6017FE98
P 5850 4700
F 0 "D11" H 5843 4445 50  0000 C CNN
F 1 "CWLED" H 5843 4536 50  0000 C CNN
F 2 "lightboard:EAH2835" H 5850 4700 50  0001 C CNN
F 3 "~" H 5850 4700 50  0001 C CNN
	1    5850 4700
	-1   0    0    1   
$EndComp
$Comp
L Device:LED D14
U 1 1 6017FE9E
P 6250 4300
F 0 "D14" H 6243 4045 50  0000 C CNN
F 1 "CWLED" H 6243 4136 50  0000 C CNN
F 2 "lightboard:EAH2835" H 6250 4300 50  0001 C CNN
F 3 "~" H 6250 4300 50  0001 C CNN
	1    6250 4300
	-1   0    0    1   
$EndComp
Wire Wire Line
	6400 4300 6500 4300
Wire Wire Line
	6400 4700 6500 4700
$Comp
L Device:LED D15
U 1 1 6017FEA6
P 6250 4700
F 0 "D15" H 6243 4445 50  0000 C CNN
F 1 "CWLED" H 6243 4536 50  0000 C CNN
F 2 "lightboard:EAH2835" H 6250 4700 50  0001 C CNN
F 3 "~" H 6250 4700 50  0001 C CNN
	1    6250 4700
	-1   0    0    1   
$EndComp
$Comp
L Device:LED D18
U 1 1 6017FEAC
P 6650 4300
F 0 "D18" H 6643 4045 50  0000 C CNN
F 1 "CWLED" H 6643 4136 50  0000 C CNN
F 2 "lightboard:EAH2835" H 6650 4300 50  0001 C CNN
F 3 "~" H 6650 4300 50  0001 C CNN
	1    6650 4300
	-1   0    0    1   
$EndComp
Wire Wire Line
	6800 4300 6900 4300
Wire Wire Line
	6800 4700 6900 4700
$Comp
L Device:LED D19
U 1 1 6017FEB4
P 6650 4700
F 0 "D19" H 6643 4445 50  0000 C CNN
F 1 "CWLED" H 6643 4536 50  0000 C CNN
F 2 "lightboard:EAH2835" H 6650 4700 50  0001 C CNN
F 3 "~" H 6650 4700 50  0001 C CNN
	1    6650 4700
	-1   0    0    1   
$EndComp
$Comp
L Device:LED D22
U 1 1 6017FEBA
P 7050 4300
F 0 "D22" H 7043 4045 50  0000 C CNN
F 1 "CWLED" H 7043 4136 50  0000 C CNN
F 2 "lightboard:EAH2835" H 7050 4300 50  0001 C CNN
F 3 "~" H 7050 4300 50  0001 C CNN
	1    7050 4300
	-1   0    0    1   
$EndComp
Wire Wire Line
	7200 4300 7300 4300
Wire Wire Line
	7200 4700 7300 4700
$Comp
L Device:LED D23
U 1 1 6017FEC2
P 7050 4700
F 0 "D23" H 7043 4445 50  0000 C CNN
F 1 "CWLED" H 7043 4536 50  0000 C CNN
F 2 "lightboard:EAH2835" H 7050 4700 50  0001 C CNN
F 3 "~" H 7050 4700 50  0001 C CNN
	1    7050 4700
	-1   0    0    1   
$EndComp
$Comp
L Device:LED D26
U 1 1 6017FEC8
P 7450 4300
F 0 "D26" H 7443 4045 50  0000 C CNN
F 1 "CWLED" H 7443 4136 50  0000 C CNN
F 2 "lightboard:EAH2835" H 7450 4300 50  0001 C CNN
F 3 "~" H 7450 4300 50  0001 C CNN
	1    7450 4300
	-1   0    0    1   
$EndComp
Wire Wire Line
	7600 4300 7700 4300
Wire Wire Line
	7600 4700 7700 4700
$Comp
L Device:LED D27
U 1 1 6017FED0
P 7450 4700
F 0 "D27" H 7443 4445 50  0000 C CNN
F 1 "CWLED" H 7443 4536 50  0000 C CNN
F 2 "lightboard:EAH2835" H 7450 4700 50  0001 C CNN
F 3 "~" H 7450 4700 50  0001 C CNN
	1    7450 4700
	-1   0    0    1   
$EndComp
$Comp
L Device:LED D30
U 1 1 6017FED6
P 7850 4300
F 0 "D30" H 7843 4045 50  0000 C CNN
F 1 "CWLED" H 7843 4136 50  0000 C CNN
F 2 "lightboard:EAH2835" H 7850 4300 50  0001 C CNN
F 3 "~" H 7850 4300 50  0001 C CNN
	1    7850 4300
	-1   0    0    1   
$EndComp
Wire Wire Line
	8000 4300 8100 4300
Wire Wire Line
	8000 4700 8100 4700
$Comp
L Device:LED D31
U 1 1 6017FEDE
P 7850 4700
F 0 "D31" H 7843 4445 50  0000 C CNN
F 1 "CWLED" H 7843 4536 50  0000 C CNN
F 2 "lightboard:EAH2835" H 7850 4700 50  0001 C CNN
F 3 "~" H 7850 4700 50  0001 C CNN
	1    7850 4700
	-1   0    0    1   
$EndComp
$Comp
L Device:LED D34
U 1 1 6017FEE4
P 8250 4300
F 0 "D34" H 8243 4045 50  0000 C CNN
F 1 "CWLED" H 8243 4136 50  0000 C CNN
F 2 "lightboard:EAH2835" H 8250 4300 50  0001 C CNN
F 3 "~" H 8250 4300 50  0001 C CNN
	1    8250 4300
	-1   0    0    1   
$EndComp
$Comp
L Device:LED D35
U 1 1 6017FEEA
P 8250 4700
F 0 "D35" H 8243 4445 50  0000 C CNN
F 1 "CWLED" H 8243 4536 50  0000 C CNN
F 2 "lightboard:EAH2835" H 8250 4700 50  0001 C CNN
F 3 "~" H 8250 4700 50  0001 C CNN
	1    8250 4700
	-1   0    0    1   
$EndComp
Text Notes 3200 1900 0    50   ~ 0
Warm White Driver\n
Text Notes 3200 4150 0    50   ~ 0
Cool White Driver\n
$Comp
L power:VCC #PWR01
U 1 1 6017FEF2
P 3050 1950
F 0 "#PWR01" H 3050 1800 50  0001 C CNN
F 1 "VCC" H 3065 2123 50  0000 C CNN
F 2 "" H 3050 1950 50  0001 C CNN
F 3 "" H 3050 1950 50  0001 C CNN
	1    3050 1950
	1    0    0    -1  
$EndComp
Text GLabel 3100 4800 0    50   Input ~ 0
CW
Text GLabel 3100 2500 0    50   Input ~ 0
WW
Wire Wire Line
	3400 4900 3600 4900
Text Label 3400 4900 0    50   ~ 0
FBCW
Wire Wire Line
	3400 2600 3600 2600
Text Label 3400 2600 0    50   ~ 0
FBWW
$Comp
L Device:R R12
U 1 1 602A8575
P 3250 4800
F 0 "R12" V 3043 4800 50  0000 C CNN
F 1 "1k" V 3134 4800 50  0000 C CNN
F 2 "Resistor_SMD:R_0805_2012Metric" V 3180 4800 50  0001 C CNN
F 3 "~" H 3250 4800 50  0001 C CNN
	1    3250 4800
	0    1    1    0   
$EndComp
Wire Wire Line
	3400 4800 3600 4800
$Comp
L Device:R R8
U 1 1 602AB557
P 3250 2500
F 0 "R8" V 3043 2500 50  0000 C CNN
F 1 "1k" V 3134 2500 50  0000 C CNN
F 2 "Resistor_SMD:R_0805_2012Metric" V 3180 2500 50  0001 C CNN
F 3 "~" H 3250 2500 50  0001 C CNN
	1    3250 2500
	0    1    1    0   
$EndComp
Wire Wire Line
	3400 2500 3600 2500
$EndSCHEMATC
