EESchema Schematic File Version 4
EELAYER 30 0
EELAYER END
$Descr A4 11693 8268
encoding utf-8
Sheet 1 2
Title "Mini Studio Light"
Date "2020-09-14"
Rev ""
Comp ""
Comment1 "Kai Gottschalk"
Comment2 ""
Comment3 ""
Comment4 ""
$EndDescr
$Comp
L Device:R R6
U 1 1 5F6DCD95
P 5250 3250
F 0 "R6" H 5320 3296 50  0000 L CNN
F 1 "30k" H 5320 3205 50  0000 L CNN
F 2 "Resistor_SMD:R_0805_2012Metric" V 5180 3250 50  0001 C CNN
F 3 "~" H 5250 3250 50  0001 C CNN
	1    5250 3250
	1    0    0    -1  
$EndComp
$Comp
L Device:R R7
U 1 1 5F6DDDAA
P 5250 3650
F 0 "R7" H 5320 3696 50  0000 L CNN
F 1 "7.5k" H 5320 3605 50  0000 L CNN
F 2 "Resistor_SMD:R_0805_2012Metric" V 5180 3650 50  0001 C CNN
F 3 "~" H 5250 3650 50  0001 C CNN
	1    5250 3650
	1    0    0    -1  
$EndComp
$Comp
L Device:R_POT RV1
U 1 1 5F6DF0F0
P 1400 1600
F 0 "RV1" H 1331 1646 50  0000 R CNN
F 1 "R_POT" H 1331 1555 50  0000 R CNN
F 2 "lightboard:3PAD" H 1400 1600 50  0001 C CNN
F 3 "~" H 1400 1600 50  0001 C CNN
	1    1400 1600
	1    0    0    -1  
$EndComp
$Comp
L power:VCC #PWR013
U 1 1 5F6F39C3
P 5250 3000
F 0 "#PWR013" H 5250 2850 50  0001 C CNN
F 1 "VCC" H 5265 3173 50  0000 C CNN
F 2 "" H 5250 3000 50  0001 C CNN
F 3 "" H 5250 3000 50  0001 C CNN
	1    5250 3000
	1    0    0    -1  
$EndComp
Wire Wire Line
	5250 3000 5250 3100
Wire Wire Line
	5250 3400 5250 3450
$Comp
L power:GND #PWR014
U 1 1 5F6F89C3
P 5250 3900
F 0 "#PWR014" H 5250 3650 50  0001 C CNN
F 1 "GND" H 5255 3727 50  0000 C CNN
F 2 "" H 5250 3900 50  0001 C CNN
F 3 "" H 5250 3900 50  0001 C CNN
	1    5250 3900
	1    0    0    -1  
$EndComp
Text Label 5400 3450 2    50   ~ 0
VS
Connection ~ 5250 3450
Wire Wire Line
	5250 3450 5250 3500
Wire Wire Line
	5250 3450 5400 3450
Wire Wire Line
	4300 3050 4600 3050
$Comp
L power:GND #PWR021
U 1 1 5F7621AF
P 3900 3300
F 0 "#PWR021" H 3900 3050 50  0001 C CNN
F 1 "GND" H 3905 3127 50  0000 C CNN
F 2 "" H 3900 3300 50  0001 C CNN
F 3 "" H 3900 3300 50  0001 C CNN
	1    3900 3300
	-1   0    0    -1  
$EndComp
$Comp
L power:GND #PWR05
U 1 1 5F76E855
P 1400 1750
F 0 "#PWR05" H 1400 1500 50  0001 C CNN
F 1 "GND" H 1405 1577 50  0000 C CNN
F 2 "" H 1400 1750 50  0001 C CNN
F 3 "" H 1400 1750 50  0001 C CNN
	1    1400 1750
	1    0    0    -1  
$EndComp
Text Label 1700 1600 2    50   ~ 0
P1
Wire Wire Line
	1700 1600 1550 1600
$Comp
L Device:R_POT RV2
U 1 1 5F773F6D
P 2100 1600
F 0 "RV2" H 2031 1646 50  0000 R CNN
F 1 "R_POT" H 2031 1555 50  0000 R CNN
F 2 "lightboard:3PAD" H 2100 1600 50  0001 C CNN
F 3 "~" H 2100 1600 50  0001 C CNN
	1    2100 1600
	1    0    0    -1  
$EndComp
$Comp
L power:GND #PWR010
U 1 1 5F773F79
P 2100 1750
F 0 "#PWR010" H 2100 1500 50  0001 C CNN
F 1 "GND" H 2105 1577 50  0000 C CNN
F 2 "" H 2100 1750 50  0001 C CNN
F 3 "" H 2100 1750 50  0001 C CNN
	1    2100 1750
	1    0    0    -1  
$EndComp
Text Label 2400 1600 2    50   ~ 0
P2
Wire Wire Line
	2400 1600 2250 1600
Text Label 7100 2350 2    50   ~ 0
P1
Wire Wire Line
	7100 2350 6950 2350
Text Label 7100 2450 2    50   ~ 0
P2
Wire Wire Line
	7100 2450 6950 2450
$Comp
L Switch:SW_SPST SW1
U 1 1 5F78673A
P 1650 2700
F 0 "SW1" H 1650 2935 50  0000 C CNN
F 1 "SW_SPST" H 1650 2844 50  0000 C CNN
F 2 "lightboard:2PAD" H 1650 2700 50  0001 C CNN
F 3 "~" H 1650 2700 50  0001 C CNN
	1    1650 2700
	1    0    0    -1  
$EndComp
Text Label 7100 1950 2    50   ~ 0
VS
Wire Wire Line
	6950 1950 7100 1950
$Comp
L Device:R R5
U 1 1 5F78D07C
P 2000 3850
F 0 "R5" H 2070 3896 50  0000 L CNN
F 1 "10k" H 2070 3805 50  0000 L CNN
F 2 "Resistor_SMD:R_0805_2012Metric" V 1930 3850 50  0001 C CNN
F 3 "~" H 2000 3850 50  0001 C CNN
	1    2000 3850
	1    0    0    -1  
$EndComp
Wire Wire Line
	1300 3550 1300 3650
Wire Wire Line
	1300 3650 1450 3650
Wire Wire Line
	2000 3650 2000 3700
$Comp
L power:GND #PWR08
U 1 1 5F7A660A
P 2000 4000
F 0 "#PWR08" H 2000 3750 50  0001 C CNN
F 1 "GND" H 2005 3827 50  0000 C CNN
F 2 "" H 2000 4000 50  0001 C CNN
F 3 "" H 2000 4000 50  0001 C CNN
	1    2000 4000
	1    0    0    -1  
$EndComp
Text Label 2150 3650 2    50   ~ 0
T2
Text Label 2150 2700 2    50   ~ 0
T1
Wire Wire Line
	2150 3650 2000 3650
Connection ~ 2000 3650
$Comp
L Device:R R4
U 1 1 5F7B8E88
P 2000 2900
F 0 "R4" H 2070 2946 50  0000 L CNN
F 1 "10k" H 2070 2855 50  0000 L CNN
F 2 "Resistor_SMD:R_0805_2012Metric" V 1930 2900 50  0001 C CNN
F 3 "~" H 2000 2900 50  0001 C CNN
	1    2000 2900
	1    0    0    -1  
$EndComp
Wire Wire Line
	1300 2600 1300 2700
Wire Wire Line
	1300 2700 1450 2700
Wire Wire Line
	2000 2700 2000 2750
$Comp
L power:GND #PWR07
U 1 1 5F7B8E92
P 2000 3050
F 0 "#PWR07" H 2000 2800 50  0001 C CNN
F 1 "GND" H 2005 2877 50  0000 C CNN
F 2 "" H 2000 3050 50  0001 C CNN
F 3 "" H 2000 3050 50  0001 C CNN
	1    2000 3050
	1    0    0    -1  
$EndComp
Wire Wire Line
	2150 2700 2000 2700
Connection ~ 2000 2700
Wire Wire Line
	1850 2700 2000 2700
Wire Wire Line
	1850 3650 2000 3650
Text Label 7100 2550 2    50   ~ 0
T1
Wire Wire Line
	7100 2550 6950 2550
Text Label 7100 2650 2    50   ~ 0
T2
Wire Wire Line
	6950 2650 7100 2650
Text Label 7100 2750 2    50   ~ 0
WW
Wire Wire Line
	6950 2750 7100 2750
Wire Wire Line
	7100 2850 6950 2850
$Comp
L Device:R R1
U 1 1 5F869F0B
P 2050 6200
F 0 "R1" V 1950 6200 50  0000 C CNN
F 1 "300" V 2050 6200 50  0000 C CNN
F 2 "Resistor_SMD:R_0805_2012Metric" V 1980 6200 50  0001 C CNN
F 3 "~" H 2050 6200 50  0001 C CNN
	1    2050 6200
	0    1    1    0   
$EndComp
$Comp
L Device:R R2
U 1 1 5F86A560
P 2050 6400
F 0 "R2" V 1950 6400 50  0000 C CNN
F 1 "100" V 2050 6400 50  0000 C CNN
F 2 "Resistor_SMD:R_0805_2012Metric" V 1980 6400 50  0001 C CNN
F 3 "~" H 2050 6400 50  0001 C CNN
	1    2050 6400
	0    1    1    0   
$EndComp
$Comp
L Device:R R3
U 1 1 5F86AA14
P 2050 6600
F 0 "R3" V 1950 6600 50  0000 C CNN
F 1 "100" V 2050 6600 50  0000 C CNN
F 2 "Resistor_SMD:R_0805_2012Metric" V 1980 6600 50  0001 C CNN
F 3 "~" H 2050 6600 50  0001 C CNN
	1    2050 6600
	0    1    1    0   
$EndComp
Text Label 7150 2050 2    50   ~ 0
LEDR
Text Label 7150 2150 2    50   ~ 0
LEDG
Text Label 7150 2250 2    50   ~ 0
LEDB
Text Label 4600 3050 2    50   ~ 0
NRST
Text Label 7150 2950 2    50   ~ 0
PA10
Wire Notes Line
	1000 1150 1000 4350
Wire Notes Line
	1000 4350 2550 4350
Wire Notes Line
	2550 4350 2550 1150
Wire Notes Line
	2550 1150 1000 1150
Text Notes 1000 1150 0    50   ~ 0
Control Interface\n
Text Notes 1000 5350 0    50   ~ 0
Status Indicator
Text Notes 3500 1250 0    50   ~ 0
Microcontroller Sensing and Access
Wire Notes Line
	7600 6100 7600 4800
Text Notes 7600 4800 0    50   ~ 0
MCU Power Delivery
$Comp
L Connector:Screw_Terminal_01x02 J4
U 1 1 5FC7DFBC
P 9750 1200
F 0 "J4" H 9830 1192 50  0000 L CNN
F 1 "Screw_Terminal_01x02" H 9830 1101 50  0000 L CNN
F 2 "lightboard:PWR2PAD" H 9750 1200 50  0001 C CNN
F 3 "~" H 9750 1200 50  0001 C CNN
	1    9750 1200
	1    0    0    -1  
$EndComp
$Comp
L power:VCC #PWR033
U 1 1 5FC7EC0D
P 9500 1150
F 0 "#PWR033" H 9500 1000 50  0001 C CNN
F 1 "VCC" H 9515 1323 50  0000 C CNN
F 2 "" H 9500 1150 50  0001 C CNN
F 3 "" H 9500 1150 50  0001 C CNN
	1    9500 1150
	1    0    0    -1  
$EndComp
$Comp
L power:GND #PWR034
U 1 1 5FC7F44E
P 9500 1350
F 0 "#PWR034" H 9500 1100 50  0001 C CNN
F 1 "GND" H 9505 1177 50  0000 C CNN
F 2 "" H 9500 1350 50  0001 C CNN
F 3 "" H 9500 1350 50  0001 C CNN
	1    9500 1350
	1    0    0    -1  
$EndComp
Wire Wire Line
	9500 1150 9500 1200
Wire Wire Line
	9500 1200 9550 1200
Wire Wire Line
	9550 1300 9500 1300
Wire Wire Line
	9500 1300 9500 1350
$Comp
L Connector_Generic:Conn_01x02 J5
U 1 1 5F63B688
P 1700 4000
F 0 "J5" V 1572 4080 50  0000 L CNN
F 1 "Conn_01x02" V 1663 4080 50  0000 L CNN
F 2 "lightboard:2PAD" H 1700 4000 50  0001 C CNN
F 3 "~" H 1700 4000 50  0001 C CNN
	1    1700 4000
	0    1    1    0   
$EndComp
Wire Wire Line
	1600 3800 1600 3700
Wire Wire Line
	1600 3700 1450 3700
Wire Wire Line
	1450 3700 1450 3650
Connection ~ 1450 3650
Wire Wire Line
	1700 3800 1700 3700
Wire Wire Line
	1700 3700 1850 3700
Wire Wire Line
	1850 3700 1850 3650
Connection ~ 1850 3650
Wire Wire Line
	7150 2250 6950 2250
Wire Wire Line
	7150 2150 6950 2150
Wire Wire Line
	7150 2050 6950 2050
$Comp
L Device:R R11
U 1 1 5FFAB7BF
P 4300 2000
F 0 "R11" H 4370 2046 50  0000 L CNN
F 1 "10k" H 4370 1955 50  0000 L CNN
F 2 "Resistor_SMD:R_0805_2012Metric" V 4230 2000 50  0001 C CNN
F 3 "~" H 4300 2000 50  0001 C CNN
	1    4300 2000
	1    0    0    -1  
$EndComp
$Comp
L Switch:SW_Push SW4
U 1 1 5FFAB7C6
P 4100 1850
F 0 "SW4" H 4100 2135 50  0000 C CNN
F 1 "SW_Push" H 4100 2044 50  0000 C CNN
F 2 "lightboard:PTS647" H 4100 2050 50  0001 C CNN
F 3 "~" H 4100 2050 50  0001 C CNN
	1    4100 1850
	-1   0    0    -1  
$EndComp
Wire Wire Line
	3900 1750 3900 1850
Text Label 4600 1700 2    50   ~ 0
BOOT0
Text Label 5750 1950 0    50   ~ 0
NRST
Wire Wire Line
	5750 1950 5950 1950
Text Label 5700 3450 0    50   ~ 0
BOOT0
Wire Wire Line
	5700 3450 5950 3450
Connection ~ 4300 1850
Wire Wire Line
	4300 1700 4300 1850
Wire Wire Line
	4600 1700 4300 1700
$Comp
L power:GND #PWR016
U 1 1 6000A637
P 4300 2150
F 0 "#PWR016" H 4300 1900 50  0001 C CNN
F 1 "GND" H 4305 1977 50  0000 C CNN
F 2 "" H 4300 2150 50  0001 C CNN
F 3 "" H 4300 2150 50  0001 C CNN
	1    4300 2150
	-1   0    0    -1  
$EndComp
$Comp
L Device:Crystal_GND24_Small Y1
U 1 1 600B27F6
P 5400 2300
F 0 "Y1" V 5446 2169 50  0000 R CNN
F 1 "8MHz" V 5355 2169 50  0000 R CNN
F 2 "footprints:IQD-LFXTAL" H 5400 2300 50  0001 C CNN
F 3 "~" H 5400 2300 50  0001 C CNN
	1    5400 2300
	0    -1   -1   0   
$EndComp
$Comp
L Device:C_Small C10
U 1 1 5FFAE5DD
P 5100 2150
F 0 "C10" V 4871 2150 50  0000 C CNN
F 1 "22pF" V 4962 2150 50  0000 C CNN
F 2 "Capacitor_SMD:C_0805_2012Metric" H 5100 2150 50  0001 C CNN
F 3 "~" H 5100 2150 50  0001 C CNN
	1    5100 2150
	0    1    1    0   
$EndComp
$Comp
L Device:C_Small C11
U 1 1 5FFB04AD
P 5100 2450
F 0 "C11" V 4871 2450 50  0000 C CNN
F 1 "22pF" V 4962 2450 50  0000 C CNN
F 2 "Capacitor_SMD:C_0805_2012Metric" H 5100 2450 50  0001 C CNN
F 3 "~" H 5100 2450 50  0001 C CNN
	1    5100 2450
	0    1    1    0   
$EndComp
Wire Wire Line
	5700 2450 5700 2350
Wire Wire Line
	5700 2350 5950 2350
Wire Wire Line
	5950 2250 5700 2250
Wire Wire Line
	5700 2250 5700 2150
Wire Wire Line
	5400 2150 5700 2150
Wire Wire Line
	5200 2150 5400 2150
Connection ~ 5400 2150
$Comp
L power:GND #PWR019
U 1 1 5FFEC5AD
P 4900 2550
F 0 "#PWR019" H 4900 2300 50  0001 C CNN
F 1 "GND" H 4905 2377 50  0000 C CNN
F 2 "" H 4900 2550 50  0001 C CNN
F 3 "" H 4900 2550 50  0001 C CNN
	1    4900 2550
	-1   0    0    -1  
$EndComp
Wire Wire Line
	5000 2150 4900 2150
Wire Wire Line
	4900 2150 4900 2450
Wire Wire Line
	5000 2450 4900 2450
Connection ~ 4900 2450
Wire Wire Line
	4900 2450 4900 2550
Text Label 2400 6200 2    50   ~ 0
LEDR
Text Label 2400 6400 2    50   ~ 0
LEDG
Text Label 2400 6600 2    50   ~ 0
LEDB
Wire Wire Line
	2400 6600 2200 6600
Wire Wire Line
	2400 6400 2200 6400
Wire Wire Line
	2400 6200 2200 6200
$Comp
L 2021-01-15_08-23-27:AP7381-33Y-13 U5
U 1 1 601E29F8
P 8400 5300
F 0 "U5" H 9200 5687 60  0000 C CNN
F 1 "AP7381-33Y-13" H 9200 5581 60  0000 C CNN
F 2 "footprints:AP7381-33Y-13" H 9200 5540 60  0001 C CNN
F 3 "" H 8400 5300 60  0000 C CNN
	1    8400 5300
	1    0    0    -1  
$EndComp
$Comp
L Device:C C12
U 1 1 601E6EB9
P 10350 5500
F 0 "C12" H 10465 5546 50  0000 L CNN
F 1 "1uF" H 10465 5455 50  0000 L CNN
F 2 "Capacitor_SMD:C_0603_1608Metric" H 10388 5350 50  0001 C CNN
F 3 "~" H 10350 5500 50  0001 C CNN
	1    10350 5500
	1    0    0    -1  
$EndComp
$Comp
L Device:C C14
U 1 1 601E7DE7
P 8050 5550
F 0 "C14" H 8165 5596 50  0000 L CNN
F 1 "2.2uF" H 8165 5505 50  0000 L CNN
F 2 "Capacitor_SMD:C_0603_1608Metric" H 8088 5400 50  0001 C CNN
F 3 "~" H 8050 5550 50  0001 C CNN
	1    8050 5550
	1    0    0    -1  
$EndComp
$Comp
L power:GND #PWR041
U 1 1 601E9CE3
P 8050 5750
F 0 "#PWR041" H 8050 5500 50  0001 C CNN
F 1 "GND" H 8055 5577 50  0000 C CNN
F 2 "" H 8050 5750 50  0001 C CNN
F 3 "" H 8050 5750 50  0001 C CNN
	1    8050 5750
	1    0    0    -1  
$EndComp
Wire Wire Line
	8050 5700 8050 5750
Wire Wire Line
	8050 5400 8050 5300
Wire Wire Line
	8050 5300 8400 5300
$Comp
L power:GND #PWR023
U 1 1 602106A5
P 10250 5750
F 0 "#PWR023" H 10250 5500 50  0001 C CNN
F 1 "GND" H 10255 5577 50  0000 C CNN
F 2 "" H 10250 5750 50  0001 C CNN
F 3 "" H 10250 5750 50  0001 C CNN
	1    10250 5750
	1    0    0    -1  
$EndComp
$Comp
L power:VCC #PWR022
U 1 1 60214A7F
P 10350 5150
F 0 "#PWR022" H 10350 5000 50  0001 C CNN
F 1 "VCC" H 10365 5323 50  0000 C CNN
F 2 "" H 10350 5150 50  0001 C CNN
F 3 "" H 10350 5150 50  0001 C CNN
	1    10350 5150
	-1   0    0    -1  
$EndComp
Wire Wire Line
	10350 5150 10350 5300
$Comp
L power:+3.3V #PWR042
U 1 1 60229CEF
P 7850 5150
F 0 "#PWR042" H 7850 5000 50  0001 C CNN
F 1 "+3.3V" H 7865 5323 50  0000 C CNN
F 2 "" H 7850 5150 50  0001 C CNN
F 3 "" H 7850 5150 50  0001 C CNN
	1    7850 5150
	-1   0    0    -1  
$EndComp
Wire Wire Line
	8050 5300 7850 5300
Wire Wire Line
	7850 5300 7850 5150
Connection ~ 8050 5300
$Comp
L power:+3.3V #PWR040
U 1 1 60237AFC
P 1350 6300
F 0 "#PWR040" H 1350 6150 50  0001 C CNN
F 1 "+3.3V" H 1365 6473 50  0000 C CNN
F 2 "" H 1350 6300 50  0001 C CNN
F 3 "" H 1350 6300 50  0001 C CNN
	1    1350 6300
	1    0    0    -1  
$EndComp
$Comp
L power:+3.3V #PWR020
U 1 1 60239FCA
P 6450 1600
F 0 "#PWR020" H 6450 1450 50  0001 C CNN
F 1 "+3.3V" H 6465 1773 50  0000 C CNN
F 2 "" H 6450 1600 50  0001 C CNN
F 3 "" H 6450 1600 50  0001 C CNN
	1    6450 1600
	1    0    0    -1  
$EndComp
$Comp
L power:+3.3V #PWR015
U 1 1 6023BBAA
P 3900 1750
F 0 "#PWR015" H 3900 1600 50  0001 C CNN
F 1 "+3.3V" H 3915 1923 50  0000 C CNN
F 2 "" H 3900 1750 50  0001 C CNN
F 3 "" H 3900 1750 50  0001 C CNN
	1    3900 1750
	1    0    0    -1  
$EndComp
Wire Wire Line
	6450 1750 6350 1750
Connection ~ 6450 1750
Wire Wire Line
	6450 1600 6450 1750
$Comp
L power:GND #PWR0101
U 1 1 600EF379
P 6450 3650
F 0 "#PWR0101" H 6450 3400 50  0001 C CNN
F 1 "GND" H 6455 3477 50  0000 C CNN
F 2 "" H 6450 3650 50  0001 C CNN
F 3 "" H 6450 3650 50  0001 C CNN
	1    6450 3650
	-1   0    0    -1  
$EndComp
Wire Wire Line
	5400 2200 5400 2150
Wire Wire Line
	5200 2450 5400 2450
Wire Wire Line
	5400 2400 5400 2450
Connection ~ 5400 2450
Wire Wire Line
	5400 2450 5700 2450
$Comp
L power:GND #PWR0103
U 1 1 6013FA87
P 5300 2300
F 0 "#PWR0103" H 5300 2050 50  0001 C CNN
F 1 "GND" H 5305 2127 50  0000 C CNN
F 2 "" H 5300 2300 50  0001 C CNN
F 3 "" H 5300 2300 50  0001 C CNN
	1    5300 2300
	-1   0    0    -1  
$EndComp
$Comp
L power:GND #PWR0104
U 1 1 6013FE18
P 5500 2300
F 0 "#PWR0104" H 5500 2050 50  0001 C CNN
F 1 "GND" H 5505 2127 50  0000 C CNN
F 2 "" H 5500 2300 50  0001 C CNN
F 3 "" H 5500 2300 50  0001 C CNN
	1    5500 2300
	-1   0    0    -1  
$EndComp
$Sheet
S 8450 2050 1500 1050
U 60156CA4
F0 "LED Drivers" 50
F1 "led-drivers.sch" 50
$EndSheet
Wire Notes Line
	2700 7350 2700 5350
Wire Notes Line
	1000 5350 1000 7350
Wire Notes Line
	10750 4800 10750 6100
Wire Notes Line
	7600 4800 10750 4800
Wire Notes Line
	7600 6100 10750 6100
Wire Wire Line
	5250 3900 5250 3800
Wire Wire Line
	6550 1750 6450 1750
$Comp
L power:+3.3V #PWR0102
U 1 1 6028F013
P 1300 3550
F 0 "#PWR0102" H 1300 3400 50  0001 C CNN
F 1 "+3.3V" H 1315 3723 50  0000 C CNN
F 2 "" H 1300 3550 50  0001 C CNN
F 3 "" H 1300 3550 50  0001 C CNN
	1    1300 3550
	1    0    0    -1  
$EndComp
$Comp
L power:+3.3V #PWR0105
U 1 1 6029107B
P 1300 2600
F 0 "#PWR0105" H 1300 2450 50  0001 C CNN
F 1 "+3.3V" H 1315 2773 50  0000 C CNN
F 2 "" H 1300 2600 50  0001 C CNN
F 3 "" H 1300 2600 50  0001 C CNN
	1    1300 2600
	1    0    0    -1  
$EndComp
$Comp
L power:+3.3V #PWR0106
U 1 1 60293019
P 1400 1450
F 0 "#PWR0106" H 1400 1300 50  0001 C CNN
F 1 "+3.3V" H 1415 1623 50  0000 C CNN
F 2 "" H 1400 1450 50  0001 C CNN
F 3 "" H 1400 1450 50  0001 C CNN
	1    1400 1450
	1    0    0    -1  
$EndComp
$Comp
L power:+3.3V #PWR0107
U 1 1 602935EB
P 2100 1450
F 0 "#PWR0107" H 2100 1300 50  0001 C CNN
F 1 "+3.3V" H 2115 1623 50  0000 C CNN
F 2 "" H 2100 1450 50  0001 C CNN
F 3 "" H 2100 1450 50  0001 C CNN
	1    2100 1450
	1    0    0    -1  
$EndComp
$Comp
L Device:LED_RGBA D1
U 1 1 6039F255
P 1700 6400
F 0 "D1" H 1700 6897 50  0000 C CNN
F 1 "LED_RGBA" H 1700 6806 50  0000 C CNN
F 2 "lightboard:EAST1616" H 1700 6350 50  0001 C CNN
F 3 "~" H 1700 6350 50  0001 C CNN
	1    1700 6400
	-1   0    0    -1  
$EndComp
Wire Wire Line
	1350 6300 1350 6400
Wire Wire Line
	1350 6400 1500 6400
Text GLabel 7100 2750 2    50   Input ~ 0
WW
Text GLabel 7100 2850 2    50   Input ~ 0
CW
Text Label 7100 2850 2    50   ~ 0
CW
Wire Wire Line
	10000 5400 10150 5400
Wire Wire Line
	10150 5400 10150 5700
Wire Wire Line
	10350 5700 10350 5650
Wire Wire Line
	10150 5700 10250 5700
Wire Wire Line
	10250 5700 10250 5750
Connection ~ 10250 5700
Wire Wire Line
	10250 5700 10350 5700
Wire Wire Line
	10000 5300 10350 5300
Wire Wire Line
	10350 5300 10350 5350
Connection ~ 10350 5300
Wire Notes Line
	3500 6200 7400 6200
Wire Notes Line
	3500 1250 7400 1250
$Comp
L Connector_Generic:Conn_01x04 J2
U 1 1 602F0B92
P 6350 4200
F 0 "J2" H 6600 4100 50  0000 R CNN
F 1 "Conn_01x04" H 6900 4200 50  0000 R CNN
F 2 "Connector_PinSocket_2.54mm:PinSocket_1x04_P2.54mm_Vertical_SMD_Pin1Left" H 6350 4200 50  0001 C CNN
F 3 "~" H 6350 4200 50  0001 C CNN
	1    6350 4200
	1    0    0    -1  
$EndComp
$Comp
L power:GND #PWR0108
U 1 1 602F1C41
P 6050 4450
F 0 "#PWR0108" H 6050 4200 50  0001 C CNN
F 1 "GND" H 6055 4277 50  0000 C CNN
F 2 "" H 6050 4450 50  0001 C CNN
F 3 "" H 6050 4450 50  0001 C CNN
	1    6050 4450
	-1   0    0    -1  
$EndComp
$Comp
L power:+3.3V #PWR0109
U 1 1 602F235B
P 6050 4050
F 0 "#PWR0109" H 6050 3900 50  0001 C CNN
F 1 "+3.3V" H 6065 4223 50  0000 C CNN
F 2 "" H 6050 4050 50  0001 C CNN
F 3 "" H 6050 4050 50  0001 C CNN
	1    6050 4050
	1    0    0    -1  
$EndComp
Wire Wire Line
	6150 4400 6050 4400
Wire Wire Line
	6050 4400 6050 4450
Wire Wire Line
	6050 4050 6050 4100
Wire Wire Line
	6050 4100 6150 4100
Text Label 5900 4200 0    50   ~ 0
SWDIO
Text Label 5900 4300 0    50   ~ 0
SWCLK
Wire Wire Line
	5900 4300 6150 4300
Wire Wire Line
	5900 4200 6150 4200
Text Label 7200 3250 2    50   ~ 0
SWDIO
Text Label 7200 3350 2    50   ~ 0
SWCLK
Wire Wire Line
	7200 3350 6950 3350
Wire Wire Line
	7200 3250 6950 3250
Wire Notes Line
	1000 7350 2700 7350
Wire Notes Line
	2700 5350 1000 5350
Wire Notes Line
	3500 1250 3500 6200
Wire Notes Line
	7400 1250 7400 6200
Text Label 5800 2250 0    50   ~ 0
PF0
Text Label 5800 2350 0    50   ~ 0
PF1
Text Label 4000 4550 0    50   ~ 0
PF0
Text Label 4000 4650 0    50   ~ 0
PF1
Wire Wire Line
	4000 4550 4150 4550
Wire Wire Line
	4000 4650 4150 4650
Text Label 3950 4750 0    50   ~ 0
NRST
Wire Wire Line
	3950 4750 4150 4750
$Comp
L power:+3.3V #PWR0110
U 1 1 6039EC18
P 3850 4750
F 0 "#PWR0110" H 3850 4600 50  0001 C CNN
F 1 "+3.3V" H 3865 4923 50  0000 C CNN
F 2 "" H 3850 4750 50  0001 C CNN
F 3 "" H 3850 4750 50  0001 C CNN
	1    3850 4750
	1    0    0    -1  
$EndComp
Text Label 4000 5350 0    50   ~ 0
P1
Wire Wire Line
	4000 5350 4150 5350
Text Label 4000 5450 0    50   ~ 0
P2
Wire Wire Line
	4000 5450 4150 5450
Text Label 4000 4950 0    50   ~ 0
VS
Wire Wire Line
	4150 4950 4000 4950
Text Label 4000 5550 0    50   ~ 0
T1
Wire Wire Line
	4000 5550 4150 5550
Text Label 4000 5650 0    50   ~ 0
T2
Wire Wire Line
	4150 5650 4000 5650
Text Label 3950 5050 0    50   ~ 0
LEDR
Text Label 3950 5150 0    50   ~ 0
LEDG
Text Label 3950 5250 0    50   ~ 0
LEDB
Wire Wire Line
	3950 5250 4150 5250
Wire Wire Line
	3950 5150 4150 5150
Wire Wire Line
	3950 5050 4150 5050
Text Label 4800 4550 2    50   ~ 0
WW
Wire Wire Line
	4650 4550 4800 4550
Wire Wire Line
	4800 4650 4650 4650
Text GLabel 4800 4550 2    50   Input ~ 0
WW
Text GLabel 4800 4650 2    50   Input ~ 0
CW
Text Label 4800 4650 2    50   ~ 0
CW
Wire Wire Line
	6950 2950 7150 2950
Text Label 4850 4750 2    50   ~ 0
PA10
Wire Wire Line
	4650 4750 4850 4750
Text Label 4850 4850 2    50   ~ 0
PA11
Wire Wire Line
	4650 4850 4850 4850
Text Label 4850 4950 2    50   ~ 0
PA12
Wire Wire Line
	4650 4950 4850 4950
Wire Wire Line
	3850 4850 4150 4850
Wire Wire Line
	3850 4750 3850 4850
Text Label 5750 2650 0    50   ~ 0
PB0
Wire Wire Line
	5950 2650 5750 2650
Text Label 5750 2750 0    50   ~ 0
PB1
Wire Wire Line
	5950 2750 5750 2750
Text Label 5750 2850 0    50   ~ 0
PB2
Wire Wire Line
	5950 2850 5750 2850
$Comp
L MCU_ST_STM32F0:STM32F042K4Ux U2
U 1 1 60089929
P 6450 2650
F 0 "U2" H 6450 2650 50  0000 C CNN
F 1 "STM32F042K4Ux" H 5900 3600 50  0000 C CNN
F 2 "Package_DFN_QFN:QFN-32-1EP_5x5mm_P0.5mm_EP3.45x3.45mm" H 6050 1750 50  0001 R CNN
F 3 "http://www.st.com/st-web-ui/static/active/en/resource/technical/document/datasheet/DM00105814.pdf" H 6450 2650 50  0001 C CNN
	1    6450 2650
	1    0    0    -1  
$EndComp
Text Label 5750 2950 0    50   ~ 0
PB3
Wire Wire Line
	5950 2950 5750 2950
Text Label 5750 3050 0    50   ~ 0
PB4
Wire Wire Line
	5950 3050 5750 3050
Text Label 5750 3150 0    50   ~ 0
PB5
Wire Wire Line
	5950 3150 5750 3150
Text Label 5750 3250 0    50   ~ 0
PB6
Wire Wire Line
	5950 3250 5750 3250
Text Label 5750 3350 0    50   ~ 0
PB7
Wire Wire Line
	5950 3350 5750 3350
Text Label 3950 5750 0    50   ~ 0
PB0
Wire Wire Line
	4150 5750 3950 5750
Text Label 3950 5850 0    50   ~ 0
PB1
Wire Wire Line
	4150 5850 3950 5850
Text Label 3950 5950 0    50   ~ 0
PB2
Wire Wire Line
	4150 5950 3950 5950
$Comp
L power:+3.3V #PWR0111
U 1 1 6047F59A
P 4950 4350
F 0 "#PWR0111" H 4950 4200 50  0001 C CNN
F 1 "+3.3V" H 4965 4523 50  0000 C CNN
F 2 "" H 4950 4350 50  0001 C CNN
F 3 "" H 4950 4350 50  0001 C CNN
	1    4950 4350
	-1   0    0    -1  
$EndComp
Wire Wire Line
	4950 4450 4650 4450
Wire Wire Line
	4950 4350 4950 4450
Wire Wire Line
	6950 3050 7150 3050
Text Label 7150 3150 2    50   ~ 0
PA12
Wire Wire Line
	6950 3150 7150 3150
Text Label 7150 3050 2    50   ~ 0
PA11
Text Label 7150 3450 2    50   ~ 0
PA15
Wire Wire Line
	6950 3450 7150 3450
Wire Wire Line
	4650 5250 4850 5250
Text Label 4850 5250 2    50   ~ 0
PA15
Wire Wire Line
	4900 5050 4650 5050
Wire Wire Line
	4900 5150 4650 5150
Text Label 4900 5150 2    50   ~ 0
SWCLK
Text Label 4900 5050 2    50   ~ 0
SWDIO
Text Label 4850 5350 2    50   ~ 0
PB3
Wire Wire Line
	4650 5350 4850 5350
Text Label 4850 5450 2    50   ~ 0
PB4
Wire Wire Line
	4650 5450 4850 5450
Text Label 4850 5550 2    50   ~ 0
PB5
Wire Wire Line
	4650 5550 4850 5550
Text Label 4850 5650 2    50   ~ 0
PB6
Wire Wire Line
	4650 5650 4850 5650
Text Label 4850 5750 2    50   ~ 0
PB7
Wire Wire Line
	4650 5750 4850 5750
Text Label 5750 2450 0    50   ~ 0
PF11
Wire Wire Line
	5950 2450 5750 2450
Text Label 4850 5850 2    50   ~ 0
PF11
Wire Wire Line
	4850 5850 4650 5850
Text Label 4900 5950 2    50   ~ 0
BOOT0
Wire Wire Line
	4900 5950 4650 5950
$Comp
L power:+3.3V #PWR0112
U 1 1 6050952A
P 3850 4350
F 0 "#PWR0112" H 3850 4200 50  0001 C CNN
F 1 "+3.3V" H 3865 4523 50  0000 C CNN
F 2 "" H 3850 4350 50  0001 C CNN
F 3 "" H 3850 4350 50  0001 C CNN
	1    3850 4350
	1    0    0    -1  
$EndComp
Wire Wire Line
	3850 4450 4150 4450
Wire Wire Line
	3850 4350 3850 4450
$Comp
L Connector_Generic:Conn_01x02 J3
U 1 1 6054B036
P 6350 5400
F 0 "J3" H 6430 5392 50  0000 L CNN
F 1 "Conn_01x02" H 6430 5301 50  0000 L CNN
F 2 "Connector_PinSocket_2.54mm:PinSocket_1x02_P2.54mm_Vertical_SMD_Pin1Left" H 6350 5400 50  0001 C CNN
F 3 "~" H 6350 5400 50  0001 C CNN
	1    6350 5400
	1    0    0    -1  
$EndComp
$Comp
L power:GND #PWR0113
U 1 1 6054B4EB
P 6000 5550
F 0 "#PWR0113" H 6000 5300 50  0001 C CNN
F 1 "GND" H 6005 5377 50  0000 C CNN
F 2 "" H 6000 5550 50  0001 C CNN
F 3 "" H 6000 5550 50  0001 C CNN
	1    6000 5550
	-1   0    0    -1  
$EndComp
Wire Wire Line
	6150 5400 6000 5400
Wire Wire Line
	6000 5400 6000 5500
Wire Wire Line
	6150 5500 6000 5500
Connection ~ 6000 5500
Wire Wire Line
	6000 5500 6000 5550
$Comp
L Connector_Generic:Conn_02x16_Top_Bottom J1
U 1 1 603DC374
P 4350 5150
F 0 "J1" H 4400 6067 50  0000 C CNN
F 1 "Conn_02x16_Top_Bottom" H 4400 5976 50  0000 C CNN
F 2 "Connector_PinSocket_2.54mm:PinSocket_2x16_P2.54mm_Vertical_SMD" H 4350 5150 50  0001 C CNN
F 3 "~" H 4350 5150 50  0001 C CNN
	1    4350 5150
	1    0    0    -1  
$EndComp
Wire Wire Line
	3900 3050 3900 3200
$Comp
L Device:C_Small C7
U 1 1 607AC847
P 4100 3200
F 0 "C7" V 4200 3200 50  0000 C CNN
F 1 "100nF" V 4000 3200 50  0000 C CNN
F 2 "Capacitor_SMD:C_0805_2012Metric" H 4100 3200 50  0001 C CNN
F 3 "~" H 4100 3200 50  0001 C CNN
	1    4100 3200
	0    -1   -1   0   
$EndComp
Wire Wire Line
	4000 3200 3900 3200
Connection ~ 3900 3200
Wire Wire Line
	3900 3200 3900 3300
Wire Wire Line
	4200 3200 4300 3200
Wire Wire Line
	4300 3200 4300 3050
Connection ~ 4300 3050
$Comp
L Switch:SW_Push SW2
U 1 1 5F785622
P 1650 3650
F 0 "SW2" H 1650 3935 50  0000 C CNN
F 1 "SW_Push" H 1650 3844 50  0000 C CNN
F 2 "lightboard:PTS647" H 1650 3850 50  0001 C CNN
F 3 "~" H 1650 3850 50  0001 C CNN
	1    1650 3650
	1    0    0    -1  
$EndComp
$Comp
L Switch:SW_Push SW3
U 1 1 5F75C891
P 4100 3050
F 0 "SW3" H 4100 3335 50  0000 C CNN
F 1 "SW_Push" H 4100 3244 50  0000 C CNN
F 2 "lightboard:PTS647" H 4100 3250 50  0001 C CNN
F 3 "~" H 4100 3250 50  0001 C CNN
	1    4100 3050
	-1   0    0    -1  
$EndComp
$EndSCHEMATC
